conv_working/example_waveform.vcd
$version Generated by VerilatedVcd $end
$timescale 1ps $end
 $scope module TOP $end
  $scope module vga_face_tb $end
   $var wire 1 * clk $end
   $var wire 1 + reset $end
   $var wire 2 , face_select [1:0] $end
   $var wire 30 - data [29:0] $end
   $var wire 1 # startofpacket $end
   $var wire 1 $ endofpacket $end
   $var wire 1 . valid $end
   $var wire 1 % ready $end
   $var wire 32 2 CLK_T [31:0] $end
   $scope module uut $end
    $var wire 1 * clk $end
    $var wire 1 + reset $end
    $var wire 2 , face_select [1:0] $end
    $var wire 30 - data [29:0] $end
    $var wire 1 # startofpacket $end
    $var wire 1 $ endofpacket $end
    $var wire 1 . valid $end
    $var wire 1 % ready $end
    $var wire 32 3 NumPixels [31:0] $end
    $var wire 32 4 NumColourBits [31:0] $end
    $var wire 3 & happy_face_q [2:0] $end
    $var wire 3 ' neutral_face_q [2:0] $end
    $var wire 3 ( angry_face_q [2:0] $end
    $var wire 19 ) pixel_index [18:0] $end
    $var wire 19 / pixel_index_next [18:0] $end
    $var wire 3 0 current_pixel [2:0] $end
    $var wire 1 1 read_enable $end
   $upscope $end
  $upscope $end
 $upscope $end
$enddefinitions $end


#0
1#
0$
0%
b000 &
b000 '
b000 (
b0000000000000000000 )
0*
1+
b00 ,
b000000000000000000000000000000 -
0.
b0000000000000000000 /
b000 0
11
b00000000000000000000000000010100 2
b00000000000001001011000000000000 3
b00000000000000000000000000000011 4
#10
1%
b010 &
b010 (
1*
b000000000011111111000000000000 -
b010 0
#20
0*
0+
1.
b0000000000000000001 /
#30
0#
b101 &
b001 '
b011 (
b0000000000000000001 )
1*
b111111110000000000001111111100 -
b0000000000000000010 /
b101 0
#40
0*
#50
b110 &
b100 '
b110 (
b0000000000000000010 )
1*
b111111110011111111000000000000 -
b0000000000000000011 /
b110 0
#60
0*
#70
b111 '
b101 (
b0000000000000000011 )
1*
b0000000000000000100 /
#80
0*
#90
0%
b000 &
b001 '
b0000000000000000100 )
1*
b000000000000000000000000000000 -
b0000000000000000101 /
b000 0
01
#100
0*
#110
1%
1*
11
#120
0*
#130
b010 &
b000 '
b000 (
b0000000000000000101 )
1*
b000000000011111111000000000000 -
b0000000000000000110 /
b010 0
#140
0*
#150
b100 &
b011 '
b111 (
b0000000000000000110 )
1*
b111111110000000000000000000000 -
b0000000000000000111 /
b100 0
#160
0*
#170
b101 &
b000 '
b110 (
b0000000000000000111 )
1*
b111111110000000000001111111100 -
b0000000000000001000 /
b101 0
#180
0*
#190
b111 &
b011 '
b001 (
b0000000000000001000 )
1*
b111111110011111111001111111100 -
b0000000000000001001 /
b111 0
#200
0*
#210
0%
b011 &
b010 '
b000 (
b0000000000000001001 )
1*
b000000000011111111001111111100 -
b0000000000000001010 /
b011 0
01
#220
0*
#230
1*
#240
0*
#250
1%
1*
11
#260
0*
#270
b101 &
b000 '
b001 (
b0000000000000001010 )
1*
b111111110000000000001111111100 -
b0000000000000001011 /
b101 0
#280
0*
#290
b011 &
b100 '
b111 (
b0000000000000001011 )
1*
b000000000011111111001111111100 -
b0000000000000001100 /
b011 0
#300
0*
#310
b101 &
b011 (
b0000000000000001100 )
1*
b111111110000000000001111111100 -
b0000000000000001101 /
b101 0
#320
0*
#330
b000 &
b011 '
b001 (
b0000000000000001101 )
1*
b000000000000000000000000000000 -
b0000000000000001110 /
b000 0
#340
0*
#350
b100 &
b101 '
b100 (
b0000000000000001110 )
1*
b111111110000000000000000000000 -
b0000000000000001111 /
b100 0
#360
0*
#370
b111 &
b111 '
b0000000000000001111 )
1*
b111111110011111111001111111100 -
b0000000000000010000 /
b111 0
#380
0*
#390
b110 &
b001 '
b110 (
b0000000000000010000 )
1*
b111111110011111111000000000000 -
b0000000000000010001 /
b110 0
#400
0*
#410
b011 &
b101 '
b0000000000000010001 )
1*
b000000000011111111001111111100 -
b0000000000000010010 /
b011 0
#420
0*
#430
0%
b000 &
b001 '
b100 (
b0000000000000010010 )
1*
b000000000000000000000000000000 -
b0000000000000010011 /
b000 0
01
#440
0*
#450
1%
1*
11
#460
0*
#470
b001 &
b010 '
b101 (
b0000000000000010011 )
1*
b000000000000000000001111111100 -
b0000000000000010100 /
b001 0
#480
0*
#490
b101 &
b001 '
b010 (
b0000000000000010100 )
1*
b111111110000000000001111111100 -
b0000000000000010101 /
b101 0
#500
0*
#510
b011 &
b111 '
b101 (
b0000000000000010101 )
1*
b000000000011111111001111111100 -
b0000000000000010110 /
b011 0
#520
0*
#530
b010 &
b011 '
b111 (
b0000000000000010110 )
1*
b000000000011111111000000000000 -
b0000000000000010111 /
b010 0
#540
0*
#550
b011 &
b101 '
b100 (
b0000000000000010111 )
1*
b000000000011111111001111111100 -
b0000000000000011000 /
b011 0
#560
0*
#570
0%
b101 (
b0000000000000011000 )
1*
b0000000000000011001 /
01
#580
0*
#590
1%
1*
11
#600
0*
#610
b001 &
b011 '
b111 (
b0000000000000011001 )
1*
b000000000000000000001111111100 -
b0000000000000011010 /
b001 0
#620
0*
#630
0%
b011 &
b010 '
b110 (
b0000000000000011010 )
1*
b000000000011111111001111111100 -
b0000000000000011011 /
b011 0
01
#640
0*
#650
1%
1*
11
#660
0*
#670
b101 &
b110 '
b111 (
b0000000000000011011 )
1*
b111111110000000000001111111100 -
b0000000000000011100 /
b101 0
#680
0*
#690
b100 &
b100 '
b001 (
b0000000000000011100 )
1*
b111111110000000000000000000000 -
b0000000000000011101 /
b100 0
#700
0*
#710
0%
b001 &
b010 '
b100 (
b0000000000000011101 )
1*
b000000000000000000001111111100 -
b0000000000000011110 /
b001 0
01
#720
0*
#730
1%
1*
11
#740
0*
#750
0%
b110 &
b111 '
b010 (
b0000000000000011110 )
1*
b111111110011111111000000000000 -
b0000000000000011111 /
b110 0
01
#760
0*
#770
1%
1*
11
#780
0*
#790
b011 '
b100 (
b0000000000000011111 )
1*
b0000000000000100000 /
#800
0*
#810
b100 &
b001 '
b000 (
b0000000000000100000 )
1*
b111111110000000000000000000000 -
b0000000000000100001 /
b100 0
#820
0*
#830
0%
b000 &
b010 '
b001 (
b0000000000000100001 )
1*
b000000000000000000000000000000 -
b0000000000000100010 /
b000 0
01
#840
0*
#850
1%
1*
11
#860
0*
#870
b110 &
b111 '
b111 (
b0000000000000100010 )
1*
b111111110011111111000000000000 -
b0000000000000100011 /
b110 0
#880
0*
#890
b001 '
b0000000000000100011 )
1*
b0000000000000100100 /
#900
0*
#910
0%
b011 &
b011 '
b101 (
b0000000000000100100 )
1*
b000000000011111111001111111100 -
b0000000000000100101 /
b011 0
01
#920
0*
#930
1%
1*
11
#940
0*
#950
b001 &
b101 '
b110 (
b0000000000000100101 )
1*
b000000000000000000001111111100 -
b0000000000000100110 /
b001 0
#960
0*
#970
b110 &
b001 '
b010 (
b0000000000000100110 )
1*
b111111110011111111000000000000 -
b0000000000000100111 /
b110 0
#980
0*
#990
b000 &
b0000000000000100111 )
1*
b000000000000000000000000000000 -
b0000000000000101000 /
b000 0
#1000
0*
#1010
b010 &
b000 '
b0000000000000101000 )
1*
b000000000011111111000000000000 -
b0000000000000101001 /
b010 0
#1020
0*
#1030
b001 &
b001 '
b001 (
b0000000000000101001 )
1*
b000000000000000000001111111100 -
b0000000000000101010 /
b001 0
#1040
0*
#1050
0%
b010 &
b010 '
b0000000000000101010 )
1*
b000000000011111111000000000000 -
b0000000000000101011 /
b010 0
01
#1060
0*
#1070
1%
1*
11
#1080
0*
#1090
b110 &
b011 '
b111 (
b0000000000000101011 )
1*
b111111110011111111000000000000 -
b0000000000000101100 /
b110 0
#1100
0*
#1110
b100 &
b111 '
b001 (
b0000000000000101100 )
1*
b111111110000000000000000000000 -
b0000000000000101101 /
b100 0
#1120
0*
#1130
b001 &
b110 (
b0000000000000101101 )
1*
b000000000000000000001111111100 -
b0000000000000101110 /
b001 0
#1140
0*
#1150
b110 &
b010 '
b0000000000000101110 )
1*
b111111110011111111000000000000 -
b0000000000000101111 /
b110 0
#1160
0*
#1170
b011 &
b000 '
b0000000000000101111 )
1*
b000000000011111111001111111100 -
b0000000000000110000 /
b011 0
#1180
0*
#1190
b001 &
b010 '
b0000000000000110000 )
1*
b000000000000000000001111111100 -
b0000000000000110001 /
b001 0
#1200
0*
#1210
b110 &
b001 '
b111 (
b0000000000000110001 )
1*
b111111110011111111000000000000 -
b0000000000000110010 /
b110 0
#1220
0*
#1230
0%
b000 &
b100 '
b101 (
b0000000000000110010 )
1*
b000000000000000000000000000000 -
b0000000000000110011 /
b000 0
01
#1240
0*
#1250
1%
1*
11
#1260
0*
#1270
b110 &
b001 '
b001 (
b0000000000000110011 )
1*
b111111110011111111000000000000 -
b0000000000000110100 /
b110 0
#1280
0*
#1290
b110 '
b0000000000000110100 )
1*
b0000000000000110101 /
#1300
0*
#1310
b101 &
b001 '
b110 (
b0000000000000110101 )
1*
b111111110000000000001111111100 -
b0000000000000110110 /
b101 0
#1320
0*
#1330
b101 '
b0000000000000110110 )
1*
b0000000000000110111 /
#1340
0*
#1350
b000 &
b011 '
b001 (
b0000000000000110111 )
1*
b000000000000000000000000000000 -
b0000000000000111000 /
b000 0
#1360
0*
#1370
0%
b101 &
b000 '
b111 (
b0000000000000111000 )
1*
b111111110000000000001111111100 -
b0000000000000111001 /
b101 0
01
#1380
0*
#1390
1%
1*
11
#1400
0*
#1410
0%
b100 '
b010 (
b0000000000000111001 )
1*
b0000000000000111010 /
01
#1420
0*
#1430
1*
#1440
0*
#1450
1%
1*
11
#1460
0*
#1470
b011 &
b101 '
b110 (
b0000000000000111010 )
1*
b000000000011111111001111111100 -
b0000000000000111011 /
b011 0
#1480
0*
#1490
b000 &
b000 '
b101 (
b0000000000000111011 )
1*
b000000000000000000000000000000 -
b0000000000000111100 /
b000 0
#1500
0*
#1510
b001 &
b011 '
b100 (
b0000000000000111100 )
1*
b000000000000000000001111111100 -
b0000000000000111101 /
b001 0
#1520
0*
#1530
b110 &
b110 '
b110 (
b0000000000000111101 )
1*
b111111110011111111000000000000 -
b0000000000000111110 /
b110 0
#1540
0*
#1550
b000 &
b001 '
b001 (
b0000000000000111110 )
1*
b000000000000000000000000000000 -
b0000000000000111111 /
b000 0
#1560
0*
#1570
b110 &
b101 '
b011 (
b0000000000000111111 )
1*
b111111110011111111000000000000 -
b0000000000001000000 /
b110 0
#1580
0*
#1590
b100 '
b010 (
b0000000000001000000 )
1*
b0000000000001000001 /
#1600
0*
#1610
b101 &
b000 '
b100 (
b0000000000001000001 )
1*
b111111110000000000001111111100 -
b0000000000001000010 /
b101 0
#1620
0*
#1630
b100 &
b111 (
b0000000000001000010 )
1*
b111111110000000000000000000000 -
b0000000000001000011 /
b100 0
#1640
0*
#1650
b110 &
b010 '
b100 (
b0000000000001000011 )
1*
b111111110011111111000000000000 -
b0000000000001000100 /
b110 0
#1660
0*
#1670
b001 &
b111 '
b0000000000001000100 )
1*
b000000000000000000001111111100 -
b0000000000001000101 /
b001 0
#1680
0*
#1690
b111 &
b101 '
b000 (
b0000000000001000101 )
1*
b111111110011111111001111111100 -
b0000000000001000110 /
b111 0
#1700
0*
#1710
0%
b110 &
b000 '
b101 (
b0000000000001000110 )
1*
b111111110011111111000000000000 -
b0000000000001000111 /
b110 0
01
#1720
0*
#1730
1%
1*
11
#1740
0*
#1750
b111 (
b0000000000001000111 )
1*
b0000000000001001000 /
#1760
0*
#1770
b000 &
b101 '
b110 (
b0000000000001001000 )
1*
b000000000000000000000000000000 -
b0000000000001001001 /
b000 0
#1780
0*
#1790
b100 &
b001 '
b010 (
b0000000000001001001 )
1*
b111111110000000000000000000000 -
b0000000000001001010 /
b100 0
#1800
0*
#1810
b110 &
b101 '
b100 (
b0000000000001001010 )
1*
b111111110011111111000000000000 -
b0000000000001001011 /
b110 0
#1820
0*
#1830
b111 &
b111 '
b010 (
b0000000000001001011 )
1*
b111111110011111111001111111100 -
b0000000000001001100 /
b111 0
#1840
0*
#1850
b100 &
b000 '
b101 (
b0000000000001001100 )
1*
b111111110000000000000000000000 -
b0000000000001001101 /
b100 0
#1860
0*
#1870
b110 &
b001 '
b010 (
b0000000000001001101 )
1*
b111111110011111111000000000000 -
b0000000000001001110 /
b110 0
#1880
0*
#1890
b000 &
b101 '
b111 (
b0000000000001001110 )
1*
b000000000000000000000000000000 -
b0000000000001001111 /
b000 0
#1900
0*
#1910
b010 &
b100 '
b001 (
b0000000000001001111 )
1*
b000000000011111111000000000000 -
b0000000000001010000 /
b010 0
#1920
0*
#1930
b110 &
b110 '
b110 (
b0000000000001010000 )
1*
b111111110011111111000000000000 -
b0000000000001010001 /
b110 0
#1940
0*
#1950
b011 &
b010 '
b010 (
b0000000000001010001 )
1*
b000000000011111111001111111100 -
b0000000000001010010 /
b011 0
#1960
0*
#1970
b001 &
b101 '
b001 (
b0000000000001010010 )
1*
b000000000000000000001111111100 -
b0000000000001010011 /
b001 0
#1980
0*
#1990
b000 &
b111 '
b100 (
b0000000000001010011 )
1*
b000000000000000000000000000000 -
b0000000000001010100 /
b000 0
#2000
0*
#2010
b110 &
b011 '
b110 (
b0000000000001010100 )
1*
b111111110011111111000000000000 -
b0000000000001010101 /
b110 0
#2020
0*
b01 ,
b000000000011111111001111111100 -
b011 0
#2030
0%
b011 &
b101 '
b001 (
b0000000000001010101 )
1*
b111111110000000000001111111100 -
b0000000000001010110 /
b101 0
01
#2040
0*
#2050
1%
1*
11
#2060
0*
#2070
b010 '
b010 (
b0000000000001010110 )
1*
b000000000011111111000000000000 -
b0000000000001010111 /
b010 0
#2080
0*
#2090
0%
b101 '
b110 (
b0000000000001010111 )
1*
b111111110000000000001111111100 -
b0000000000001011000 /
b101 0
01
#2100
0*
#2110
1%
1*
11
#2120
0*
#2130
0%
b111 &
b0000000000001011000 )
1*
b0000000000001011001 /
01
#2140
0*
#2150
1%
1*
11
#2160
0*
#2170
0%
b011 &
b010 '
b001 (
b0000000000001011001 )
1*
b000000000011111111000000000000 -
b0000000000001011010 /
b010 0
01
#2180
0*
#2190
1%
1*
11
#2200
0*
#2210
0%
b110 &
b110 '
b110 (
b0000000000001011010 )
1*
b111111110011111111000000000000 -
b0000000000001011011 /
b110 0
01
#2220
0*
#2230
1%
1*
11
#2240
0*
#2250
b001 &
b000 '
b010 (
b0000000000001011011 )
1*
b000000000000000000000000000000 -
b0000000000001011100 /
b000 0
#2260
0*
#2270
b110 &
b110 '
b100 (
b0000000000001011100 )
1*
b111111110011111111000000000000 -
b0000000000001011101 /
b110 0
#2280
0*
#2290
b101 &
b010 '
b0000000000001011101 )
1*
b000000000011111111000000000000 -
b0000000000001011110 /
b010 0
#2300
0*
#2310
b100 &
b110 '
b000 (
b0000000000001011110 )
1*
b111111110011111111000000000000 -
b0000000000001011111 /
b110 0
#2320
0*
#2330
0%
b110 &
b001 '
b001 (
b0000000000001011111 )
1*
b000000000000000000001111111100 -
b0000000000001100000 /
b001 0
01
#2340
0*
#2350
1%
1*
11
#2360
0*
#2370
0%
b010 &
b010 '
b0000000000001100000 )
1*
b000000000011111111000000000000 -
b0000000000001100001 /
b010 0
01
#2380
0*
#2390
1*
#2400
0*
#2410
1*
#2420
0*
#2430
1%
1*
11
#2440
0*
#2450
b101 &
b101 '
b011 (
b0000000000001100001 )
1*
b111111110000000000001111111100 -
b0000000000001100010 /
b101 0
#2460
0*
#2470
b000 &
b110 '
b101 (
b0000000000001100010 )
1*
b111111110011111111000000000000 -
b0000000000001100011 /
b110 0
#2480
0*
#2490
b101 &
b001 '
b000 (
b0000000000001100011 )
1*
b000000000000000000001111111100 -
b0000000000001100100 /
b001 0
#2500
0*
#2510
b011 &
b110 '
b001 (
b0000000000001100100 )
1*
b111111110011111111000000000000 -
b0000000000001100101 /
b110 0
#2520
0*
#2530
b000 &
b001 '
b011 (
b0000000000001100101 )
1*
b000000000000000000001111111100 -
b0000000000001100110 /
b001 0
#2540
0*
#2550
b110 &
b011 '
b000 (
b0000000000001100110 )
1*
b000000000011111111001111111100 -
b0000000000001100111 /
b011 0
#2560
0*
#2570
b001 (
b0000000000001100111 )
1*
b0000000000001101000 /
#2580
0*
#2590
0%
b000 &
b111 '
b100 (
b0000000000001101000 )
1*
b111111110011111111001111111100 -
b0000000000001101001 /
b111 0
01
#2600
0*
#2610
1%
1*
11
#2620
0*
#2630
b100 '
b011 (
b0000000000001101001 )
1*
b111111110000000000000000000000 -
b0000000000001101010 /
b100 0
#2640
0*
#2650
b011 &
b110 '
b111 (
b0000000000001101010 )
1*
b111111110011111111000000000000 -
b0000000000001101011 /
b110 0
#2660
0*
#2670
b100 &
b110 (
b0000000000001101011 )
1*
b0000000000001101100 /
#2680
0*
#2690
b110 &
b000 '
b0000000000001101100 )
1*
b000000000000000000000000000000 -
b0000000000001101101 /
b000 0
#2700
0*
#2710
b111 '
b000 (
b0000000000001101101 )
1*
b111111110011111111001111111100 -
b0000000000001101110 /
b111 0
#2720
0*
#2730
b011 &
b010 (
b0000000000001101110 )
1*
b0000000000001101111 /
#2740
0*
#2750
b001 &
b001 '
b110 (
b0000000000001101111 )
1*
b000000000000000000001111111100 -
b0000000000001110000 /
b001 0
#2760
0*
#2770
b000 &
b111 '
b0000000000001110000 )
1*
b111111110011111111001111111100 -
b0000000000001110001 /
b111 0
#2780
0*
#2790
b011 &
b001 '
b000 (
b0000000000001110001 )
1*
b000000000000000000001111111100 -
b0000000000001110010 /
b001 0
#2800
0*
#2810
0%
b010 &
b111 '
b011 (
b0000000000001110010 )
1*
b111111110011111111001111111100 -
b0000000000001110011 /
b111 0
01
#2820
0*
#2830
1%
1*
11
#2840
0*
#2850
b111 &
b000 '
b111 (
b0000000000001110011 )
1*
b000000000000000000000000000000 -
b0000000000001110100 /
b000 0
#2860
0*
#2870
b001 '
b010 (
b0000000000001110100 )
1*
b000000000000000000001111111100 -
b0000000000001110101 /
b001 0
#2880
0*
#2890
b110 &
b110 '
b100 (
b0000000000001110101 )
1*
b111111110011111111000000000000 -
b0000000000001110110 /
b110 0
#2900
0*
#2910
b011 '
b010 (
b0000000000001110110 )
1*
b000000000011111111001111111100 -
b0000000000001110111 /
b011 0
#2920
0*
#2930
b001 (
b0000000000001110111 )
1*
b0000000000001111000 /
#2940
0*
#2950
b100 &
b001 '
b110 (
b0000000000001111000 )
1*
b000000000000000000001111111100 -
b0000000000001111001 /
b001 0
#2960
0*
#2970
b101 &
b111 '
b111 (
b0000000000001111001 )
1*
b111111110011111111001111111100 -
b0000000000001111010 /
b111 0
#2980
0*
#2990
b000 &
b001 '
b001 (
b0000000000001111010 )
1*
b000000000000000000001111111100 -
b0000000000001111011 /
b001 0
#3000
0*
#3010
b001 &
b111 '
b100 (
b0000000000001111011 )
1*
b111111110011111111001111111100 -
b0000000000001111100 /
b111 0
#3020
0*
#3030
b000 '
b010 (
b0000000000001111100 )
1*
b000000000000000000000000000000 -
b0000000000001111101 /
b000 0
#3040
0*
#3050
b110 &
b000 (
b0000000000001111101 )
1*
b0000000000001111110 /
#3060
0*
#3070
b101 &
b111 '
b101 (
b0000000000001111110 )
1*
b111111110011111111001111111100 -
b0000000000001111111 /
b111 0
#3080
0*
#3090
0%
b111 &
b110 '
b010 (
b0000000000001111111 )
1*
b111111110011111111000000000000 -
b0000000000010000000 /
b110 0
01
#3100
0*
#3110
1%
1*
11
#3120
0*
#3130
b000 &
b010 '
b100 (
b0000000000010000000 )
1*
b000000000011111111000000000000 -
b0000000000010000001 /
b010 0
#3140
0*
#3150
b110 &
b001 '
b101 (
b0000000000010000001 )
1*
b000000000000000000001111111100 -
b0000000000010000010 /
b001 0
#3160
0*
#3170
b101 &
b011 '
b011 (
b0000000000010000010 )
1*
b000000000011111111001111111100 -
b0000000000010000011 /
b011 0
#3180
0*
#3190
b000 &
b100 '
b101 (
b0000000000010000011 )
1*
b111111110000000000000000000000 -
b0000000000010000100 /
b100 0
#3200
0*
#3210
b010 &
b001 '
b001 (
b0000000000010000100 )
1*
b000000000000000000001111111100 -
b0000000000010000101 /
b001 0
#3220
0*
#3230
0%
b101 '
b100 (
b0000000000010000101 )
1*
b111111110000000000001111111100 -
b0000000000010000110 /
b101 0
01
#3240
0*
#3250
1%
1*
11
#3260
0*
#3270
b000 &
b011 '
b011 (
b0000000000010000110 )
1*
b000000000011111111001111111100 -
b0000000000010000111 /
b011 0
#3280
0*
#3290
b100 &
b111 (
b0000000000010000111 )
1*
b0000000000010001000 /
#3300
0*
#3310
0%
b010 &
b010 '
b110 (
b0000000000010001000 )
1*
b000000000011111111000000000000 -
b0000000000010001001 /
b010 0
01
#3320
0*
#3330
1%
1*
11
#3340
0*
#3350
b001 &
b101 (
b0000000000010001001 )
1*
b0000000000010001010 /
#3360
0*
#3370
0%
b110 &
b011 '
b110 (
b0000000000010001010 )
1*
b000000000011111111001111111100 -
b0000000000010001011 /
b011 0
01
#3380
0*
#3390
1%
1*
11
#3400
0*
#3410
0%
b000 &
b101 '
b010 (
b0000000000010001011 )
1*
b111111110000000000001111111100 -
b0000000000010001100 /
b101 0
01
#3420
0*
#3430
1*
#3440
0*
#3450
1*
#3460
0*
#3470
1%
1*
11
#3480
0*
#3490
b100 '
b001 (
b0000000000010001100 )
1*
b111111110000000000000000000000 -
b0000000000010001101 /
b100 0
#3500
0*
#3510
b011 &
b011 '
b100 (
b0000000000010001101 )
1*
b000000000011111111001111111100 -
b0000000000010001110 /
b011 0
#3520
0*
#3530
b110 &
b111 '
b0000000000010001110 )
1*
b111111110011111111001111111100 -
b0000000000010001111 /
b111 0
#3540
0*
#3550
b010 &
b110 '
b110 (
b0000000000010001111 )
1*
b111111110011111111000000000000 -
b0000000000010010000 /
b110 0
#3560
0*
#3570
0%
b110 &
b101 '
b011 (
b0000000000010010000 )
1*
b111111110000000000001111111100 -
b0000000000010010001 /
b101 0
01
#3580
0*
#3590
1%
1*
11
#3600
0*
#3610
b011 '
b010 (
b0000000000010010001 )
1*
b000000000011111111001111111100 -
b0000000000010010010 /
b011 0
#3620
0*
#3630
b111 &
b101 (
b0000000000010010010 )
1*
b0000000000010010011 /
#3640
0*
#3650
b001 &
b010 (
b0000000000010010011 )
1*
b0000000000010010100 /
#3660
0*
#3670
b111 &
b111 '
b0000000000010010100 )
1*
b111111110011111111001111111100 -
b0000000000010010101 /
b111 0
#3680
0*
#3690
b010 &
b011 '
b110 (
b0000000000010010101 )
1*
b000000000011111111001111111100 -
b0000000000010010110 /
b011 0
#3700
0*
#3710
b001 &
b100 '
b001 (
b0000000000010010110 )
1*
b111111110000000000000000000000 -
b0000000000010010111 /
b100 0
#3720
0*
#3730
b0000000000010010111 )
1*
b0000000000010011000 /
#3740
0*
#3750
b110 &
b101 '
b111 (
b0000000000010011000 )
1*
b111111110000000000001111111100 -
b0000000000010011001 /
b101 0
#3760
0*
#3770
0%
b100 &
b000 '
b010 (
b0000000000010011001 )
1*
b000000000000000000000000000000 -
b0000000000010011010 /
b000 0
01
#3780
0*
#3790
1%
1*
11
#3800
0*
#3810
b101 '
b000 (
b0000000000010011010 )
1*
b111111110000000000001111111100 -
b0000000000010011011 /
b101 0
#3820
0*
#3830
b010 &
b000 '
b0000000000010011011 )
1*
b000000000000000000000000000000 -
b0000000000010011100 /
b000 0
#3840
0*
#3850
b000 &
b010 '
b100 (
b0000000000010011100 )
1*
b000000000011111111000000000000 -
b0000000000010011101 /
b010 0
#3860
0*
#3870
0%
b110 &
b101 (
b0000000000010011101 )
1*
b0000000000010011110 /
01
#3880
0*
#3890
1%
1*
11
#3900
0*
#3910
b010 &
b000 '
b000 (
b0000000000010011110 )
1*
b000000000000000000000000000000 -
b0000000000010011111 /
b000 0
#3920
0*
#3930
0%
b011 &
b101 '
b010 (
b0000000000010011111 )
1*
b111111110000000000001111111100 -
b0000000000010100000 /
b101 0
01
#3940
0*
#3950
1*
#3960
0*
#3970
1%
1*
11
#3980
0*
#3990
b101 &
b100 '
b110 (
b0000000000010100000 )
1*
b111111110000000000000000000000 -
b0000000000010100001 /
b100 0
#4000
0*
#4010
b111 '
b011 (
b0000000000010100001 )
1*
b111111110011111111001111111100 -
b0000000000010100010 /
b111 0
#4020
0*
b10 ,
b000000000011111111001111111100 -
b011 0
#4030
b010 &
b001 '
b0000000000010100010 )
1*
b0000000000010100011 /
#4040
0*
#4050
b000 &
b101 (
b0000000000010100011 )
1*
b111111110000000000001111111100 -
b0000000000010100100 /
b101 0
#4060
0*
#4070
b111 &
b001 (
b0000000000010100100 )
1*
b000000000000000000001111111100 -
b0000000000010100101 /
b001 0
#4080
0*
#4090
b010 &
b101 '
b000 (
b0000000000010100101 )
1*
b000000000000000000000000000000 -
b0000000000010100110 /
b000 0
#4100
0*
#4110
b100 &
b100 '
b100 (
b0000000000010100110 )
1*
b111111110000000000000000000000 -
b0000000000010100111 /
b100 0
#4120
0*
#4130
b110 &
b000 '
b001 (
b0000000000010100111 )
1*
b000000000000000000001111111100 -
b0000000000010101000 /
b001 0
#4140
0*
#4150
b011 &
b111 '
b000 (
b0000000000010101000 )
1*
b000000000000000000000000000000 -
b0000000000010101001 /
b000 0
#4160
0*
#4170
b111 &
b011 '
b001 (
b0000000000010101001 )
1*
b000000000000000000001111111100 -
b0000000000010101010 /
b001 0
#4180
0*
#4190
b100 &
b100 '
b101 (
b0000000000010101010 )
1*
b111111110000000000001111111100 -
b0000000000010101011 /
b101 0
#4200
0*
#4210
0%
b011 &
b011 '
b011 (
b0000000000010101011 )
1*
b000000000011111111001111111100 -
b0000000000010101100 /
b011 0
01
#4220
0*
#4230
1%
1*
11
#4240
0*
#4250
b001 '
b000 (
b0000000000010101100 )
1*
b000000000000000000000000000000 -
b0000000000010101101 /
b000 0
#4260
0*
#4270
b101 &
b011 '
b101 (
b0000000000010101101 )
1*
b111111110000000000001111111100 -
b0000000000010101110 /
b101 0
#4280
0*
#4290
0%
b000 &
b110 '
b0000000000010101110 )
1*
b0000000000010101111 /
01
#4300
0*
#4310
1*
#4320
0*
#4330
1%
1*
11
#4340
0*
#4350
0%
b011 &
b001 '
b010 (
b0000000000010101111 )
1*
b000000000011111111000000000000 -
b0000000000010110000 /
b010 0
01
#4360
0*
#4370
1%
1*
11
#4380
0*
#4390
b000 &
b101 '
b110 (
b0000000000010110000 )
1*
b111111110011111111000000000000 -
b0000000000010110001 /
b110 0
#4400
0*
#4410
b100 '
b010 (
b0000000000010110001 )
1*
b000000000011111111000000000000 -
b0000000000010110010 /
b010 0
#4420
0*
#4430
b001 &
b101 (
b0000000000010110010 )
1*
b111111110000000000001111111100 -
b0000000000010110011 /
b101 0
#4440
0*
#4450
0%
b011 &
b111 (
b0000000000010110011 )
1*
b111111110011111111001111111100 -
b0000000000010110100 /
b111 0
01
#4460
0*
#4470
1*
#4480
0*
#4490
1%
1*
11
#4500
0*
#4510
b101 &
b110 (
b0000000000010110100 )
1*
b111111110011111111000000000000 -
b0000000000010110101 /
b110 0
#4520
0*
#4530
b010 &
b111 '
b0000000000010110101 )
1*
b0000000000010110110 /
#4540
0*
#4550
0%
b101 &
b000 '
b010 (
b0000000000010110110 )
1*
b000000000011111111000000000000 -
b0000000000010110111 /
b010 0
01
#4560
0*
#4570
1%
1*
11
#4580
0*
#4590
b101 '
b000 (
b0000000000010110111 )
1*
b000000000000000000000000000000 -
b0000000000010111000 /
b000 0
#4600
0*
#4610
b100 &
b100 '
b001 (
b0000000000010111000 )
1*
b000000000000000000001111111100 -
b0000000000010111001 /
b001 0
#4620
0*
#4630
b011 '
b000 (
b0000000000010111001 )
1*
b000000000000000000000000000000 -
b0000000000010111010 /
b000 0
#4640
0*
#4650
0%
b001 &
b101 '
b010 (
b0000000000010111010 )
1*
b000000000011111111000000000000 -
b0000000000010111011 /
b010 0
01
#4660
0*
#4670
1*
#4680
0*
#4690
1*
#4700
0*
#4710
1*
#4720
0*
#4730
1%
1*
11
#4740
0*
#4750
0%
b000 &
b100 '
b011 (
b0000000000010111011 )
1*
b000000000011111111001111111100 -
b0000000000010111100 /
b011 0
01
#4760
0*
#4770
1%
1*
11
#4780
0*
#4790
0%
b100 &
b011 '
b0000000000010111100 )
1*
b0000000000010111101 /
01
#4800
0*
#4810
1%
1*
11
#4820
0*
#4830
b110 &
b001 '
b0000000000010111101 )
1*
b0000000000010111110 /
#4840
0*
#4850
b010 &
b100 '
b001 (
b0000000000010111110 )
1*
b000000000000000000001111111100 -
b0000000000010111111 /
b001 0
#4860
0*
#4870
b000 &
b111 '
b100 (
b0000000000010111111 )
1*
b111111110000000000000000000000 -
b0000000000011000000 /
b100 0
#4880
0*
#4890
b011 '
b111 (
b0000000000011000000 )
1*
b111111110011111111001111111100 -
b0000000000011000001 /
b111 0
#4900
0*
#4910
0%
b101 &
b010 '
b0000000000011000001 )
1*
b0000000000011000010 /
01
#4920
0*
#4930
1%
1*
11
#4940
0*
#4950
b000 &
b110 '
b0000000000011000010 )
1*
b0000000000011000011 /
#4960
0*
#4970
0%
b101 &
b100 '
b011 (
b0000000000011000011 )
1*
b000000000011111111001111111100 -
b0000000000011000100 /
b011 0
01
#4980
0*
#4990
1%
1*
11
#5000
0*
#5010
b000 '
b001 (
b0000000000011000100 )
1*
b000000000000000000001111111100 -
b0000000000011000101 /
b001 0
#5020
0*
#5030
0%
b110 &
b110 '
b011 (
b0000000000011000101 )
1*
b000000000011111111001111111100 -
b0000000000011000110 /
b011 0
01
#5040
0*
#5050
1%
1*
11
#5060
0*
#5070
b111 &
b100 '
b101 (
b0000000000011000110 )
1*
b111111110000000000001111111100 -
b0000000000011000111 /
b101 0
#5080
0*
#5090
b000 &
b111 '
b010 (
b0000000000011000111 )
1*
b000000000011111111000000000000 -
b0000000000011001000 /
b010 0
#5100
0*
#5110
b100 &
b011 (
b0000000000011001000 )
1*
b000000000011111111001111111100 -
b0000000000011001001 /
b011 0
#5120
0*
