conv_working/waveform.vcd
$version Generated by VerilatedVcd $end
$timescale 1ns $end
 $scope module TOP $end
  $scope module vga_face_tb $end
   $var wire 1 z clk $end
   $var wire 1 { reset $end
   $var wire 2 | face_select [1:0] $end
   $var wire 30 $! data [29:0] $end
   $var wire 1 , startofpacket $end
   $var wire 1 - endofpacket $end
   $var wire 1 } valid $end
   $var wire 1 . ready $end
   $var wire 1 / conv_data $end
   $var wire 32 %! CLK_T [31:0] $end
   $scope module uut $end
    $var wire 1 z clk $end
    $var wire 1 { reset $end
    $var wire 2 | face_select [1:0] $end
    $var wire 30 0 conv_data [29:0] $end
    $var wire 1 , startofpacket $end
    $var wire 1 - endofpacket $end
    $var wire 1 } valid $end
    $var wire 1 . ready $end
    $var wire 32 &! NumPixels [31:0] $end
    $var wire 32 '! NumColourBits [31:0] $end
    $var wire 18 1 pixel_index [17:0] $end
    $var wire 18 ~ pixel_index_next [17:0] $end
    $var wire 3 2 happy_face_q [2:0] $end
    $var wire 3 3 neutral_face_q [2:0] $end
    $var wire 3 4 angry_face_q [2:0] $end
    $var wire 1 !! read_enable $end
    $var wire 3 "! current_pixel [2:0] $end
    $var wire 30 #! data [29:0] $end
    $scope module pixel_input $end
     $var wire 32 (! N [31:0] $end
     $var wire 1 .! valid $end
     $var wire 1 . ready $end
     $var wire 30 #! data [29:0] $end
    $upscope $end
    $scope module pixel_output $end
     $var wire 32 (! N [31:0] $end
     $var wire 1 y valid $end
     $var wire 1 . ready $end
     $var wire 30 0 data [29:0] $end
    $upscope $end
    $scope module u_edge_conv $end
     $var wire 32 (! W [31:0] $end
     $var wire 32 )! W_FRAC [31:0] $end
     $var wire 1 z clk $end
     $scope module x $end
      $var wire 32 (! N [31:0] $end
      $var wire 1 .! valid $end
      $var wire 1 . ready $end
      $var wire 30 #! data [29:0] $end
     $upscope $end
     $scope module y $end
      $var wire 32 (! N [31:0] $end
      $var wire 1 y valid $end
      $var wire 1 . ready $end
      $var wire 30 0 data [29:0] $end
     $upscope $end
     $var wire 32 %! WIDTH [31:0] $end
     $var wire 32 %! HEIGHT [31:0] $end
     $var wire 32 *! N [31:0] $end
     $var wire 30 # h[0] [29:0] $end
     $var wire 30 $ h[1] [29:0] $end
     $var wire 30 % h[2] [29:0] $end
     $var wire 30 & h[3] [29:0] $end
     $var wire 30 ' h[4] [29:0] $end
     $var wire 30 ( h[5] [29:0] $end
     $var wire 30 ) h[6] [29:0] $end
     $var wire 30 * h[7] [29:0] $end
     $var wire 30 + h[8] [29:0] $end
     $var wire 20 5 counter [19:0] $end
     $var wire 1 6 conv_ready $end
     $var wire 30 7 test [29:0] $end
     $var wire 60 8 mult_result_red[0] [59:0] $end
     $var wire 60 : mult_result_red[1] [59:0] $end
     $var wire 60 < mult_result_red[2] [59:0] $end
     $var wire 60 > mult_result_red[3] [59:0] $end
     $var wire 60 @ mult_result_red[4] [59:0] $end
     $var wire 60 B mult_result_red[5] [59:0] $end
     $var wire 60 D mult_result_red[6] [59:0] $end
     $var wire 60 F mult_result_red[7] [59:0] $end
     $var wire 60 H mult_result_red[8] [59:0] $end
     $var wire 60 J mult_result_green[0] [59:0] $end
     $var wire 60 L mult_result_green[1] [59:0] $end
     $var wire 60 N mult_result_green[2] [59:0] $end
     $var wire 60 P mult_result_green[3] [59:0] $end
     $var wire 60 R mult_result_green[4] [59:0] $end
     $var wire 60 T mult_result_green[5] [59:0] $end
     $var wire 60 V mult_result_green[6] [59:0] $end
     $var wire 60 X mult_result_green[7] [59:0] $end
     $var wire 60 Z mult_result_green[8] [59:0] $end
     $var wire 60 \ mult_result_blue[0] [59:0] $end
     $var wire 60 ^ mult_result_blue[1] [59:0] $end
     $var wire 60 ` mult_result_blue[2] [59:0] $end
     $var wire 60 b mult_result_blue[3] [59:0] $end
     $var wire 60 d mult_result_blue[4] [59:0] $end
     $var wire 60 f mult_result_blue[5] [59:0] $end
     $var wire 60 h mult_result_blue[6] [59:0] $end
     $var wire 60 j mult_result_blue[7] [59:0] $end
     $var wire 60 l mult_result_blue[8] [59:0] $end
     $var wire 65 n macc_red [64:0] $end
     $var wire 65 q macc_green [64:0] $end
     $var wire 65 t macc_blue [64:0] $end
     $var wire 1 +! i $end
     $var wire 1 ,! overflow $end
     $var wire 1 w x_valid_q $end
     $scope module MAC $end
      $scope module unnamedblk2 $end
       $var wire 32 -! i [31:0] $end
      $upscope $end
     $upscope $end
     $scope module store_values $end
      $scope module unnamedblk1 $end
       $var wire 32 x j [31:0] $end
      $upscope $end
     $upscope $end
    $upscope $end
   $upscope $end
  $upscope $end
 $upscope $end
$enddefinitions $end


#0
b111111111111111111111111111111 #
b111111111111111111111111111111 $
b111111111111111111111111111111 %
b111111111111111111111111111111 &
b111111111111111111111111111000 '
b111111111111111111111111111111 (
b111111111111111111111111111111 )
b111111111111111111111111111111 *
b111111111111111111111111111111 +
1,
0-
0.
0/
b000000000000000000000000000000 0
b000000000000000000 1
b000 2
b000 3
b000 4
b00000000000000000000 5
06
b000000000000000000000000000000 7
b000000000000000000000000000000000000000000000000000000000000 8
b000000000000000000000000000000000000000000000000000000000000 :
b000000000000000000000000000000000000000000000000000000000000 <
b000000000000000000000000000000000000000000000000000000000000 >
b000000000000000000000000000000000000000000000000000000000000 @
b000000000000000000000000000000000000000000000000000000000000 B
b000000000000000000000000000000000000000000000000000000000000 D
b000000000000000000000000000000000000000000000000000000000000 F
b000000000000000000000000000000000000000000000000000000000000 H
b000000000000000000000000000000000000000000000000000000000000 J
b000000000000000000000000000000000000000000000000000000000000 L
b000000000000000000000000000000000000000000000000000000000000 N
b000000000000000000000000000000000000000000000000000000000000 P
b000000000000000000000000000000000000000000000000000000000000 R
b000000000000000000000000000000000000000000000000000000000000 T
b000000000000000000000000000000000000000000000000000000000000 V
b000000000000000000000000000000000000000000000000000000000000 X
b000000000000000000000000000000000000000000000000000000000000 Z
b000000000000000000000000000000000000000000000000000000000000 \
b000000000000000000000000000000000000000000000000000000000000 ^
b000000000000000000000000000000000000000000000000000000000000 `
b000000000000000000000000000000000000000000000000000000000000 b
b000000000000000000000000000000000000000000000000000000000000 d
b000000000000000000000000000000000000000000000000000000000000 f
b000000000000000000000000000000000000000000000000000000000000 h
b000000000000000000000000000000000000000000000000000000000000 j
b000000000000000000000000000000000000000000000000000000000000 l
b00000000000000000000000000000000000000000000000000000000000000000 n
b00000000000000000000000000000000000000000000000000000000000000000 q
b00000000000000000000000000000000000000000000000000000000000000000 t
0w
b00000000000000000000000000000000 x
0y
0z
1{
b00 |
0}
b000000000000000000 ~
1!!
b000 "!
b000000000000000000000000000000 #!
b000000000000000000000000000000 $!
b00000000000000000000000000010100 %!
b00000000000000010010110000000000 &!
b00000000000000000000000000000011 '!
b00000000000000000000000000011110 (!
b00000000000000000000000000000000 )!
b00000000000000000000000000001001 *!
0+!
0,!
b00000000000000000000000000001001 -!
1.!
#10
1.
b010 2
b010 4
1z
b010 "!
b000000000011111111000000000000 #!
#20
0z
0{
1}
b000000000000000001 ~
#30
0,
b000000000000000001 1
b101 2
b001 3
b011 4
b00000000000000000001 5
b000000000011111111000000000000 7
b000000000000000000000011111110111111111111111111111100000001 J
b00000000000000000000000000011111110111111111111111111111100000001 q
1w
b00000000000000000000000000101011 x
1z
b000000000000000010 ~
b101 "!
b111111110000000000001111111100 #!
#40
0z
#50
b000000000000000010 1
b110 2
b100 3
b110 4
b00000000000000000010 5
b111111110000000000001111111100 7
b000000000000000000000011111110111111111111111111111100000001 8
b000000000000000000000000000000000000000000000000000000000000 J
b000000000000000000001111111011111111111111111111110000000100 \
b00000000000000000000000000011111110111111111111111111111100000001 n
b00000000000000000000000000000000000000000000000000000000000000000 q
b00000000000000000000000001111111011111111111111111111110000000100 t
1y
1z
b000000000000000011 ~
b110 "!
b111111110011111111000000000000 #!
#60
0z
#70
b111111111111111111000000010000 0
b000000000000000011 1
b111 3
b101 4
b00000000000000000011 5
b111111110011111111000000000000 7
b000000000000000000000011111110111111111111111111111100000001 J
b000000000000000000000011111110111111111111111111111100000001 L
b000000000000000000000000000000000000000000000000000000000000 \
b00000000000000000000000000111111101111111111111111111111000000010 q
b00000000000000000000000000000000000000000000000000000000000000000 t
1z
b000000000000000100 ~
#80
0z
#90
0.
b000000000000000000000000000000 0
b000000000000000100 1
b000 2
b001 3
b00000000000000000100 5
b000000000000000000000011111110111111111111111111111100000001 :
b000000000000000000000000000000000000000000000000000000000000 L
b000000000000000000001111111011111111111111111111110000000100 ^
b00000000000000000000000000111111101111111111111111111111000000010 n
b00000000000000000000000000011111110111111111111111111111100000001 q
b00000000000000000000000001111111011111111111111111111110000000100 t
1z
b000000000000000101 ~
0!!
b000 "!
b000000000000000000000000000000 #!
#100
0z
#110
1.
1z
1!!
#120
0z
#130
b111111111111111111000000010000 0
b000000000000000101 1
b010 2
b000 3
b000 4
b00000000000000000101 5
b000000000000000000000000000000 7
b000000000000000000000000000000000000000000000000000000000000 8
b000000000000000000000000000000000000000000000000000000000000 J
b000000000000000000000011111110111111111111111111111100000001 L
b000000000000000000000011111110111111111111111111111100000001 N
b000000000000000000000000000000000000000000000000000000000000 ^
b00000000000000000000000000011111110111111111111111111111100000001 n
b00000000000000000000000000111111101111111111111111111111000000010 q
b00000000000000000000000000000000000000000000000000000000000000000 t
1z
b000000000000000110 ~
b010 "!
b000000000011111111000000000000 #!
#140
0z
#150
b000000000000000000000000000000 0
b000000000000000110 1
b100 2
b011 3
b111 4
b00000000000000000110 5
b000000000011111111000000000000 7
b000000000000000000000011111110111111111111111111111100000001 <
b000000000000000000000011111110111111111111111111111100000001 J
b000000000000000000000000000000000000000000000000000000000000 N
b000000000000000000001111111011111111111111111111110000000100 `
b00000000000000000000000000111111101111111111111111111111000000010 n
b00000000000000000000000001111111011111111111111111111110000000100 t
1z
b000000000000000111 ~
b100 "!
b111111110000000000000000000000 #!
#160
0z
#170
b111111111111111111000000010000 0
b000000000000000111 1
b101 2
b000 3
b110 4
b00000000000000000111 5
b111111110000000000000000000000 7
b000000000000000000000011111110111111111111111111111100000001 8
b000000000000000000000000000000000000000000000000000000000000 :
b000000000000000000000000000000000000000000000000000000000000 J
b000000000000000000000000000000000000000000000000000000000000 L
b000000000000000000000011111110111111111111111111111100000001 N
b000000000000000000000000000000000000000000000000000000000000 `
b00000000000000000000000000011111110111111111111111111111100000001 q
b00000000000000000000000000000000000000000000000000000000000000000 t
1z
b000000000000001000 ~
b101 "!
b111111110000000000001111111100 #!
#180
0z
#190
b000000000000000000000000000000 0
b000000000000001000 1
b111 2
b011 3
b001 4
b00000000000000001000 5
b111111110000000000001111111100 7
b000000000000000000000011111110111111111111111111111100000001 L
b000000000000000000001111111011111111111111111111110000000100 \
b00000000000000000000000000111111101111111111111111111111000000010 q
b00000000000000000000000001111111011111111111111111111110000000100 t
1z
b000000000000001001 ~
b111 "!
b111111110011111111001111111100 #!
#200
0z
#210
0.
b111111111111111111000000010000 0
b000000000000001001 1
b011 2
b010 3
b000 4
b00000000000000001001 5
b111111110011111111001111111100 7
b000000000000000000000011111110111111111111111111111100000001 :
b000000000000000000000000000000000000000000000000000000000000 <
b000000000000000000000011111110111111111111111111111100000001 J
b000000000000000000000000000000000000000000000000000000000000 L
b000000000000000000000000000000000000000000000000000000000000 N
b00000000000000000000000000011111110111111111111111111111100000001 q
1z
b000000000000001010 ~
0!!
b011 "!
b000000000011111111001111111100 #!
#220
0z
#230
1z
#240
0z
#250
1.
1z
1!!
#260
0z
#270
b000000000000001010 1
b101 2
b000 3
b001 4
b00000000000000001010 5
b000000000011111111001111111100 7
b000000000000000000000000000000000000000000000000000000000000 8
b000000000000000000000011111110111111111111111111111100000001 N
b000000000000000000001111111011111111111111111111110000000100 ^
b00000000000000000000000000011111110111111111111111111111100000001 n
b00000000000000000000000000111111101111111111111111111111000000010 q
b00000000000000000000000011111110111111111111111111111100000001000 t
1z
b000000000000001011 ~
b101 "!
b111111110000000000001111111100 #!
#280
0z
#290
b111111111111111110000000100000 0
b000000000000001011 1
b011 2
b100 3
b111 4
b00000000000000001011 5
b111111110000000000001111111100 7
b000000000000000000000011111110111111111111111111111100000001 8
b000000000000000000000011111110111111111111111111111100000001 <
b000000000000000000000000000000000000000000000000000000000000 J
b000000000000000000000011111110111111111111111111111100000001 L
b000000000000000000000000000000000000000000000000000000000000 N
b00000000000000000000000001011111100111111111111111111110100000011 n
b00000000000000000000000000011111110111111111111111111111100000001 q
1z
b000000000000001100 ~
b011 "!
b000000000011111111001111111100 #!
#300
0z
#310
b000000000000001100 1
b101 2
b011 4
b00000000000000001100 5
b000000000011111111001111111100 7
b000000000000000000000000000000000000000000000000000000000000 8
b000000000000000000000000000000000000000000000000000000000000 :
b000000000000000000000011111110111111111111111111111100000001 J
b000000000000000000001111111011111111111111111111110000000100 `
b00000000000000000000000000011111110111111111111111111111100000001 n
b00000000000000000000000000111111101111111111111111111111000000010 q
b00000000000000000000000101111110011111111111111111111010000001100 t
1z
b000000000000001101 ~
b101 "!
b111111110000000000001111111100 #!
#320
0z
#330
b111111111111111101000000110000 0
b000000000000001101 1
b000 2
b011 3
b001 4
b00000000000000001101 5
b111111110000000000001111111100 7
b000000000000000000000011111110111111111111111111111100000001 8
b000000000000000000000011111110111111111111111111111100000001 :
b000000000000000000000000000000000000000000000000000000000000 J
b000000000000000000000000000000000000000000000000000000000000 L
b000000000000000000000011111110111111111111111111111100000001 N
b00000000000000000000000001011111100111111111111111111110100000011 n
b00000000000000000000000000011111110111111111111111111111100000001 q
1z
b000000000000001110 ~
b000 "!
b000000000000000000000000000000 #!
#340
0z
#350
b000000000000001110 1
b100 2
b101 3
b100 4
b00000000000000001110 5
b000000000000000000000000000000 7
b000000000000000000000000000000000000000000000000000000000000 8
b000000000000000000000000000000000000000000000000000000000000 :
b000000000000000000000000000000000000000000000000000000000000 <
b000000000000000000000011111110111111111111111111111100000001 L
b000000000000000000000000000000000000000000000000000000000000 \
b00000000000000000000000000000000000000000000000000000000000000000 n
b00000000000000000000000000111111101111111111111111111111000000010 q
b00000000000000000000000011111110111111111111111111111100000001000 t
1z
b000000000000001111 ~
b100 "!
b111111110000000000000000000000 #!
#360
0z
#370
b111111111111111110000000100000 0
b000000000000001111 1
b111 2
b111 3
b00000000000000001111 5
b111111110000000000000000000000 7
b000000000000000000000011111110111111111111111111111100000001 8
b000000000000000000000011111110111111111111111111111100000001 :
b000000000000000000000011111110111111111111111111111100000001 <
b000000000000000000000000000000000000000000000000000000000000 L
b000000000000000000000000000000000000000000000000000000000000 N
b00000000000000000000000001011111100111111111111111111110100000011 n
b00000000000000000000000000000000000000000000000000000000000000000 q
1z
b000000000000010000 ~
b111 "!
b111111110011111111001111111100 #!
#380
0z
#390
b000000000000010000 1
b110 2
b001 3
b110 4
b00000000000000010000 5
b111111110011111111001111111100 7
b000000000000000000000000000000000000000000000000000000000000 :
b000000000000000000000000000000000000000000000000000000000000 <
b000000000000000000000011111110111111111111111111111100000001 J
b000000000000000000000011111110111111111111111111111100000001 N
b000000000000000000001111111011111111111111111111110000000100 \
b000000000000000000000000000000000000000000000000000000000000 ^
b00000000000000000000000000011111110111111111111111111111100000001 n
b00000000000000000000000000111111101111111111111111111111000000010 q
1z
b000000000000010001 ~
b110 "!
b111111110011111111000000000000 #!
#400
0z
#410
b000000000000010001 1
b011 2
b101 3
b00000000000000010001 5
b111111110011111111000000000000 7
b000000000000000000000011111110111111111111111111111100000001 :
b000000000000000000000011111110111111111111111111111100000001 <
b000000000000000000000000000000000000000000000000000000000000 N
b000000000000000000000000000000000000000000000000000000000000 \
b00000000000000000000000001011111100111111111111111111110100000011 n
b00000000000000000000000000011111110111111111111111111111100000001 q
b00000000000000000000000001111111011111111111111111111110000000100 t
1z
b000000000000010010 ~
b011 "!
b000000000011111111001111111100 #!
#420
0z
#430
0.
b111111111111111111000000010000 0
b000000000000010010 1
b000 2
b001 3
b100 4
b00000000000000010010 5
b000000000011111111001111111100 7
b000000000000000000000000000000000000000000000000000000000000 8
b000000000000000000000000000000000000000000000000000000000000 <
b000000000000000000000011111110111111111111111111111100000001 L
b000000000000000000001111111011111111111111111111110000000100 \
b000000000000000000001111111011111111111111111111110000000100 ^
b000000000000000000000000000000000000000000000000000000000000 `
b00000000000000000000000000011111110111111111111111111111100000001 n
b00000000000000000000000000111111101111111111111111111111000000010 q
b00000000000000000000000011111110111111111111111111111100000001000 t
1z
b000000000000010011 ~
0!!
b000 "!
b000000000000000000000000000000 #!
#440
0z
#450
1.
1z
1!!
#460
0z
#470
b111111111111111110000000100000 0
b000000000000010011 1
b001 2
b010 3
b101 4
b00000000000000010011 5
b000000000000000000000000000000 7
b000000000000000000000011111110111111111111111111111100000001 <
b000000000000000000000000000000000000000000000000000000000000 J
b000000000000000000000000000000000000000000000000000000000000 \
b000000000000000000000000000000000000000000000000000000000000 ^
b00000000000000000000000000111111101111111111111111111111000000010 n
b00000000000000000000000000011111110111111111111111111111100000001 q
b00000000000000000000000000000000000000000000000000000000000000000 t
1z
b000000000000010100 ~
b001 "!
b000000000000000000001111111100 #!
#480
0z
#490
b000000000000000000000000000000 0
b000000000000010100 1
b101 2
b001 3
b010 4
b00000000000000010100 5
b000000000000000000001111111100 7
b000000000000000000000000000000000000000000000000000000000000 :
b000000000000000000000011111110111111111111111111111100000001 N
b000000000000000000001111111011111111111111111111110000000100 \
b000000000000000000001111111011111111111111111111110000000100 ^
b000000000000000000001111111011111111111111111111110000000100 `
b00000000000000000000000000011111110111111111111111111111100000001 n
b00000000000000000000000000111111101111111111111111111111000000010 q
b00000000000000000000000101111110011111111111111111111010000001100 t
1z
b000000000000010101 ~
b101 "!
b111111110000000000001111111100 #!
#500
0z
#510
b111111111111111101000000110000 0
b000000000000010101 1
b011 2
b111 3
b101 4
b00000000000000010101 5
b111111110000000000001111111100 7
b000000000000000000000011111110111111111111111111111100000001 8
b000000000000000000000000000000000000000000000000000000000000 L
b000000000000000000000000000000000000000000000000000000000000 ^
b000000000000000000000000000000000000000000000000000000000000 `
b00000000000000000000000000111111101111111111111111111111000000010 n
b00000000000000000000000000011111110111111111111111111111100000001 q
b00000000000000000000000001111111011111111111111111111110000000100 t
1z
b000000000000010110 ~
b011 "!
b000000000011111111001111111100 #!
#520
0z
#530
b111111111111111111000000010000 0
b000000000000010110 1
b010 2
b011 3
b111 4
b00000000000000010110 5
b000000000011111111001111111100 7
b000000000000000000000000000000000000000000000000000000000000 8
b000000000000000000000000000000000000000000000000000000000000 <
b000000000000000000000011111110111111111111111111111100000001 J
b000000000000000000001111111011111111111111111111110000000100 ^
b000000000000000000001111111011111111111111111111110000000100 `
b00000000000000000000000000000000000000000000000000000000000000000 n
b00000000000000000000000000111111101111111111111111111111000000010 q
b00000000000000000000000101111110011111111111111111111010000001100 t
1z
b000000000000010111 ~
b010 "!
b000000000011111111000000000000 #!
#540
0z
#550
b111111111111111101000000110000 0
b000000000000010111 1
b011 2
b101 3
b100 4
b00000000000000010111 5
b000000000011111111000000000000 7
b000000000000000000000011111110111111111111111111111100000001 :
b000000000000000000000000000000000000000000000000000000000000 N
b000000000000000000000000000000000000000000000000000000000000 \
b000000000000000000000000000000000000000000000000000000000000 `
b00000000000000000000000000011111110111111111111111111111100000001 n
b00000000000000000000000000011111110111111111111111111111100000001 q
b00000000000000000000000001111111011111111111111111111110000000100 t
1z
b000000000000011000 ~
b011 "!
b000000000011111111001111111100 #!
#560
0z
#570
0.
b111111111111111111000000010000 0
b000000000000011000 1
b101 4
b00000000000000011000 5
b000000000011111111001111111100 7
b000000000000000000000000000000000000000000000000000000000000 :
b000000000000000000000011111110111111111111111111111100000001 L
b000000000000000000001111111011111111111111111111110000000100 \
b000000000000000000001111111011111111111111111111110000000100 `
b00000000000000000000000000000000000000000000000000000000000000000 n
b00000000000000000000000000111111101111111111111111111111000000010 q
b00000000000000000000000101111110011111111111111111111010000001100 t
1z
b000000000000011001 ~
0!!
#580
0z
#590
1.
1z
1!!
#600
0z
#610
b111111111111111101000000110000 0
b000000000000011001 1
b001 2
b011 3
b111 4
b00000000000000011001 5
b000000000000000000000011111110111111111111111111111100000001 <
b000000000000000000000000000000000000000000000000000000000000 ^
b00000000000000000000000000011111110111111111111111111111100000001 n
b00000000000000000000000011111110111111111111111111111100000001000 t
1z
b000000000000011010 ~
b001 "!
b000000000000000000001111111100 #!
#620
0z
#630
0.
b111111111111111110000000100000 0
b000000000000011010 1
b011 2
b010 3
b110 4
b00000000000000011010 5
b000000000000000000001111111100 7
b000000000000000000000000000000000000000000000000000000000000 <
b000000000000000000000000000000000000000000000000000000000000 J
b000000000000000000000011111110111111111111111111111100000001 N
b000000000000000000001111111011111111111111111111110000000100 ^
b00000000000000000000000000000000000000000000000000000000000000000 n
b00000000000000000000000101111110011111111111111111111010000001100 t
1z
b000000000000011011 ~
0!!
b011 "!
b000000000011111111001111111100 #!
#640
0z
#650
1.
1z
1!!
#660
0z
#670
b111111111111111101000000110000 0
b000000000000011011 1
b101 2
b110 3
b111 4
b00000000000000011011 5
b000000000011111111001111111100 7
b000000000000000000000011111110111111111111111111111100000001 J
b000000000000000000000000000000000000000000000000000000000000 `
b00000000000000000000000001011111100111111111111111111110100000011 q
b00000000000000000000000011111110111111111111111111111100000001000 t
1z
b000000000000011100 ~
b101 "!
b111111110000000000001111111100 #!
#680
0z
#690
b111111111111111110000000100000 0
b000000000000011100 1
b100 2
b100 3
b001 4
b00000000000000011100 5
b111111110000000000001111111100 7
b000000000000000000000011111110111111111111111111111100000001 8
b000000000000000000000000000000000000000000000000000000000000 J
b000000000000000000000000000000000000000000000000000000000000 L
b000000000000000000001111111011111111111111111111110000000100 `
b00000000000000000000000000011111110111111111111111111111100000001 n
b00000000000000000000000000011111110111111111111111111111100000001 q
b00000000000000000000000101111110011111111111111111111010000001100 t
1z
b000000000000011101 ~
b100 "!
b111111110000000000000000000000 #!
#700
0z
#710
0.
b111111111111111101000000110000 0
b000000000000011101 1
b001 2
b010 3
b100 4
b00000000000000011101 5
b111111110000000000000000000000 7
b000000000000000000000011111110111111111111111111111100000001 L
b000000000000000000000000000000000000000000000000000000000000 \
b00000000000000000000000000111111101111111111111111111111000000010 q
b00000000000000000000000011111110111111111111111111111100000001000 t
1z
b000000000000011110 ~
0!!
b001 "!
b000000000000000000001111111100 #!
#720
0z
#730
1.
1z
1!!
#740
0z
#750
0.
b111111111111111110000000100000 0
b000000000000011110 1
b110 2
b111 3
b010 4
b00000000000000011110 5
b000000000000000000001111111100 7
b000000000000000000000000000000000000000000000000000000000000 8
b000000000000000000000011111110111111111111111111111100000001 :
b000000000000000000000000000000000000000000000000000000000000 L
b000000000000000000000000000000000000000000000000000000000000 N
b000000000000000000001111111011111111111111111111110000000100 \
b00000000000000000000000000000000000000000000000000000000000000000 q
b00000000000000000000000101111110011111111111111111111010000001100 t
1z
b000000000000011111 ~
0!!
b110 "!
b111111110011111111000000000000 #!
#760
0z
#770
1.
1z
1!!
#780
0z
#790
b111111111111111101000000110000 0
b000000000000011111 1
b011 3
b100 4
b00000000000000011111 5
b111111110011111111000000000000 7
b000000000000000000000011111110111111111111111111111100000001 8
b000000000000000000000011111110111111111111111111111100000001 J
b000000000000000000000011111110111111111111111111111100000001 N
b000000000000000000000000000000000000000000000000000000000000 \
b000000000000000000000000000000000000000000000000000000000000 ^
b00000000000000000000000000111111101111111111111111111111000000010 n
b00000000000000000000000000111111101111111111111111111111000000010 q
b00000000000000000000000001111111011111111111111111111110000000100 t
1z
b000000000000100000 ~
#800
0z
#810
b111111111111111111000000010000 0
b000000000000100000 1
b100 2
b001 3
b000 4
b00000000000000100000 5
b000000000000000000000000000000000000000000000000000000000000 :
b000000000000000000000011111110111111111111111111111100000001 <
b000000000000000000000000000000000000000000000000000000000000 N
b000000000000000000001111111011111111111111111111110000000100 ^
b00000000000000000000000000011111110111111111111111111111100000001 q
b00000000000000000000000011111110111111111111111111111100000001000 t
1z
b000000000000100001 ~
b100 "!
b111111110000000000000000000000 #!
#820
0z
#830
0.
b111111111111111110000000100000 0
b000000000000100001 1
b000 2
b010 3
b001 4
b00000000000000100001 5
b111111110000000000000000000000 7
b000000000000000000000011111110111111111111111111111100000001 :
b000000000000000000000000000000000000000000000000000000000000 J
b000000000000000000000011111110111111111111111111111100000001 L
b000000000000000000000000000000000000000000000000000000000000 ^
b000000000000000000000000000000000000000000000000000000000000 `
b00000000000000000000000001011111100111111111111111111110100000011 n
b00000000000000000000000000000000000000000000000000000000000000000 t
1z
b000000000000100010 ~
0!!
b000 "!
b000000000000000000000000000000 #!
#840
0z
#850
1.
1z
1!!
#860
0z
#870
b000000000000000000000000000000 0
b000000000000100010 1
b110 2
b111 3
b111 4
b00000000000000100010 5
b000000000000000000000000000000 7
b000000000000000000000000000000000000000000000000000000000000 8
b000000000000000000000000000000000000000000000000000000000000 <
b000000000000000000001111111011111111111111111111110000000100 `
b00000000000000000000000000011111110111111111111111111111100000001 n
b00000000000000000000000001111111011111111111111111111110000000100 t
1z
b000000000000100011 ~
b110 "!
b111111110011111111000000000000 #!
#880
0z
#890
b111111111111111111000000010000 0
b000000000000100011 1
b001 3
b00000000000000100011 5
b111111110011111111000000000000 7
b000000000000000000000011111110111111111111111111111100000001 8
b000000000000000000000011111110111111111111111111111100000001 <
b000000000000000000000011111110111111111111111111111100000001 J
b000000000000000000000000000000000000000000000000000000000000 L
b000000000000000000000011111110111111111111111111111100000001 N
b000000000000000000000000000000000000000000000000000000000000 `
b00000000000000000000000001011111100111111111111111111110100000011 n
b00000000000000000000000000111111101111111111111111111111000000010 q
b00000000000000000000000000000000000000000000000000000000000000000 t
1z
b000000000000100100 ~
#900
0z
#910
0.
b000000000000000000000000000000 0
b000000000000100100 1
b011 2
b011 3
b101 4
b00000000000000100100 5
b000000000000000000000000000000000000000000000000000000000000 :
b00000000000000000000000000111111101111111111111111111111000000010 n
1z
b000000000000100101 ~
0!!
b011 "!
b000000000011111111001111111100 #!
#920
0z
#930
1.
1z
1!!
#940
0z
#950
b000000000000100101 1
b001 2
b101 3
b110 4
b00000000000000100101 5
b000000000011111111001111111100 7
b000000000000000000000000000000000000000000000000000000000000 8
b000000000000000000000011111110111111111111111111111100000001 :
b000000000000000000000011111110111111111111111111111100000001 L
b000000000000000000000000000000000000000000000000000000000000 N
b000000000000000000001111111011111111111111111111110000000100 \
b00000000000000000000000001111111011111111111111111111110000000100 t
1z
b000000000000100110 ~
b001 "!
b000000000000000000001111111100 #!
#960
0z
#970
b111111111111111111000000010000 0
b000000000000100110 1
b110 2
b001 3
b010 4
b00000000000000100110 5
b000000000000000000001111111100 7
b000000000000000000000000000000000000000000000000000000000000 <
b000000000000000000000000000000000000000000000000000000000000 J
b00000000000000000000000000011111110111111111111111111111100000001 n
b00000000000000000000000000011111110111111111111111111111100000001 q
1z
b000000000000100111 ~
b110 "!
b111111110011111111000000000000 #!
#980
0z
#990
b000000000000100111 1
b000 2
b00000000000000100111 5
b111111110011111111000000000000 7
b000000000000000000000011111110111111111111111111111100000001 8
b000000000000000000000000000000000000000000000000000000000000 :
b000000000000000000000011111110111111111111111111111100000001 <
b000000000000000000000011111110111111111111111111111100000001 J
b000000000000000000000011111110111111111111111111111100000001 N
b000000000000000000000000000000000000000000000000000000000000 \
b000000000000000000001111111011111111111111111111110000000100 ^
b00000000000000000000000000111111101111111111111111111111000000010 n
b00000000000000000000000001011111100111111111111111111110100000011 q
1z
b000000000000101000 ~
b000 "!
b000000000000000000000000000000 #!
#1000
0z
#1010
b000000000000101000 1
b010 2
b000 3
b00000000000000101000 5
b000000000000000000000000000000 7
b000000000000000000000000000000000000000000000000000000000000 8
b000000000000000000000000000000000000000000000000000000000000 J
b000000000000000000000000000000000000000000000000000000000000 L
b00000000000000000000000000011111110111111111111111111111100000001 n
b00000000000000000000000000011111110111111111111111111111100000001 q
1z
b000000000000101001 ~
b010 "!
b000000000011111111000000000000 #!
#1020
0z
#1030
b000000000000101001 1
b001 2
b001 3
b001 4
b00000000000000101001 5
b000000000011111111000000000000 7
b000000000000000000000011111110111111111111111111111100000001 :
b000000000000000000000000000000000000000000000000000000000000 <
b000000000000000000000011111110111111111111111111111100000001 J
b000000000000000000000011111110111111111111111111111100000001 L
b000000000000000000000011111110111111111111111111111100000001 P
b000000000000000000000000000000000000000000000000000000000000 ^
b000000000000000000001111111011111111111111111111110000000100 `
b00000000000000000000000001111111011111111111111111111110000000100 q
1z
b000000000000101010 ~
b001 "!
b000000000000000000001111111100 #!
#1040
0z
#1050
0.
b000000000000101010 1
b010 2
b010 3
b00000000000000101010 5
b000000000000000000001111111100 7
b000000000000000000000000000000000000000000000000000000000000 :
b000000000000000000000011111110111111111111111111111100000001 >
b000000000000000000000000000000000000000000000000000000000000 J
b000000000000000000000000000000000000000000000000000000000000 L
b000000000000000000000000000000000000000000000000000000000000 N
b000000000000000000000000000000000000000000000000000000000000 P
b000000000000000000001111111011111111111111111111110000000100 \
b000000000000000000001111111011111111111111111111110000000100 b
b00000000000000000000000000000000000000000000000000000000000000000 q
b00000000000000000000000101111110011111111111111111111010000001100 t
1z
b000000000000101011 ~
0!!
b010 "!
b000000000011111111000000000000 #!
#1060
0z
#1070
1.
1z
1!!
#1080
0z
